…
``` r
library(gutenbergr)
library(tidytext)
options(digits = 3)
```

You can see the books and documents available in gutenbergr like this:

``` r
gutenberg_metadata
```

    ## # A tibble: 51,997 x 8
    ##    gutenberg_id title author gutenberg_autho… language gutenberg_books… rights
    ##           <int> <chr> <chr>             <int> <chr>    <chr>            <chr> 
    ##  1            0  <NA> <NA>                 NA en       <NA>             Publi…
    ##  2            1 "The… Jeffe…             1638 en       United States L… Publi…
    ##  3            2 "The… Unite…                1 en       American Revolu… Publi…
    ##  4            3 "Joh… Kenne…             1666 en       <NA>             Publi…
    ##  5            4 "Lin… Linco…                3 en       US Civil War     Publi…
    ##  6            5 "The… Unite…                1 en       American Revolu… Publi…
    ##  7            6 "Giv… Henry…                4 en       American Revolu… Publi…
    ##  8            7 "The… <NA>                 NA en       <NA>             Publi…
    ##  9            8 "Abr… Linco…                3 en       US Civil War     Publi…
    ## 10            9 "Abr… Linco…                3 en       US Civil War     Publi…
    ## # … with 51,987 more rows, and 1 more variable: has_text <lgl>
…
``` r
# Looking at the stop_words structure
str(stop_words)
```

    ## tibble [1,149 × 2] (S3: tbl_df/tbl/data.frame)
    ##  $ word   : chr [1:1149] "a" "a's" "able" "about" ...
    ##  $ lexicon: chr [1:1149] "SMART" "SMART" "SMART" "SMART" ...

``` r
# Looking at the data:
stop_words
```

    ## # A tibble: 1,149 x 2
    ##    word        lexicon
    ##    <chr>       <chr>  
    ##  1 a           SMART  
    ##  2 a's         SMART  
    ##  3 able        SMART  
    ##  4 about       SMART  
    ##  5 above       SMART  
    ##  6 according   SMART  
    ##  7 accordingly SMART  
    ##  8 across      SMART  
    ##  9 actually    SMART  
    ## 10 after       SMART  
    ## # … with 1,139 more rows

``` r
# Filtering out the words from stop_words:

words <- words %>%
  filter(!word %in% stop_words$word)

words
```

    ## # A tibble: 37,246 x 2
    ##    gutenberg_id word        
    ##           <int> <chr>       
    ##  1         1342 pride       
    ##  2         1342 prejudice   
    ##  3         1342 jane        
    ##  4         1342 austen      
    ##  5         1342 chapter     
    ##  6         1342 1           
    ##  7         1342 truth       
    ##  8         1342 universally 
    ##  9         1342 acknowledged
    ## 10         1342 single      
    ## # … with 37,236 more rows
…
