…
    ## [1] 122

### Question 13

Finish it up by changing tab to a tidy format, starting from this code
outline:

``` r
tab <- tab %>% gather(year, deaths, -day) %>%
    mutate(deaths = as.numeric(deaths))
tab
```

    ## # A tibble: 120 x 3
    ##      day year  deaths
    ##    <dbl> <chr>  <dbl>
    ##  1     1 2015      75
    ##  2     2 2015      77
    ##  3     3 2015      67
    ##  4     4 2015      71
    ##  5     5 2015      62
    ##  6     6 2015      77
    ##  7     7 2015      85
    ##  8     8 2015      84
    ##  9     9 2015      79
    ## 10    10 2015      66
    ## # … with 110 more rows
…
