…
It is not surprising that these are the top words. The top words are not
informative. The tidytext package has database of these commonly used
words, referred to as stop words, in text mining:

``` r
stop_words
```

    ## # A tibble: 1,149 x 2
    ##    word        lexicon
    ##    <chr>       <chr>  
    ##  1 a           SMART  
    ##  2 a's         SMART  
    ##  3 able        SMART  
    ##  4 about       SMART  
    ##  5 above       SMART  
    ##  6 according   SMART  
    ##  7 accordingly SMART  
    ##  8 across      SMART  
    ##  9 actually    SMART  
    ## 10 after       SMART  
    ## # … with 1,139 more rows
…
The first step in sentiment analysis is to assign a sentiment to each
word. The tidytext package includes several maps or lexicons in the
object sentiments:

``` r
library(textdata)

sentiments
```

    ## # A tibble: 6,786 x 2
    ##    word        sentiment
    ##    <chr>       <chr>    
    ##  1 2-faces     negative 
    ##  2 abnormal    negative 
    ##  3 abolish     negative 
    ##  4 abominable  negative 
    ##  5 abominably  negative 
    ##  6 abominate   negative 
    ##  7 abomination negative 
    ##  8 abort       negative 
    ##  9 aborted     negative 
    ## 10 aborts      negative 
    ## # … with 6,776 more rows

``` r
# There are several lexicons in the tidytext package that give different sentiments. For example, the bing lexicon divides words into positive and negative. We can see this using the tidytext function get_sentiments():


# The AFINN lexicon assigns a score between -5 and 5, with -5 the most negative and 5 the most positive.

get_sentiments("afinn")
```

    ## # A tibble: 2,477 x 2
    ##    word       value
    ##    <chr>      <dbl>
    ##  1 abandon       -2
    ##  2 abandoned     -2
    ##  3 abandons      -2
    ##  4 abducted      -2
    ##  5 abduction     -2
    ##  6 abductions    -2
    ##  7 abhor         -3
    ##  8 abhorred      -3
    ##  9 abhorrent     -3
    ## 10 abhors        -3
    ## # … with 2,467 more rows
…
